{
  "width": 64,
  "height": 42,
  "animation": [
    {
      "width": 61,
      "height": 42,
      "x": 0,
      "y": 0
    },
    {
      "width": 56,
      "height": 48,
      "x": 0,
      "y": 42
    }
  ]
}
